Library\Bee\artifacts\mvdfrm\Unity.Services.Core.ref.dll_FF91F9BC6398EB7C.mvfrm
Library\Bee\artifacts\mvdfrm\UnityEngine.UI.ref.dll_AFC2E85BC2EDBC0B.mvfrm
Library\Bee\artifacts\mvdfrm\UnityEngine.AccessibilityModule.dll_8C5809473070A84B.mvfrm
Library\Bee\artifacts\mvdfrm\UnityEngine.AIModule.dll_AF27E6FBCEF4963F.mvfrm
Library\Bee\artifacts\mvdfrm\UnityEngine.AndroidJNIModule.dll_367FD9946CF77B7D.mvfrm
Library\Bee\artifacts\mvdfrm\UnityEngine.AnimationModule.dll_1D6CDFBAB12DFC31.mvfrm
Library\Bee\artifacts\mvdfrm\UnityEngine.ARModule.dll_689AABFF2C11F508.mvfrm
Library\Bee\artifacts\mvdfrm\UnityEngine.AssetBundleModule.dll_8D7A12E9EC13F37F.mvfrm
Library\Bee\artifacts\mvdfrm\UnityEngine.AudioModule.dll_30FB73951CC768E3.mvfrm
Library\Bee\artifacts\mvdfrm\UnityEngine.ClothModule.dll_97E3D08FF6E447C7.mvfrm
Library\Bee\artifacts\mvdfrm\UnityEngine.CoreModule.dll_862B96D03F1A2E76.mvfrm
Library\Bee\artifacts\mvdfrm\UnityEngine.CrashReportingModule.dll_55FA7D0D839B67CE.mvfrm
Library\Bee\artifacts\mvdfrm\UnityEngine.DirectorModule.dll_A00F2FA6C3CD6A13.mvfrm
Library\Bee\artifacts\mvdfrm\UnityEngine.dll_884428ECD740F13F.mvfrm
Library\Bee\artifacts\mvdfrm\UnityEngine.DSPGraphModule.dll_A5609110362E3B34.mvfrm
Library\Bee\artifacts\mvdfrm\UnityEngine.GameCenterModule.dll_60CD23AF33386C6E.mvfrm
Library\Bee\artifacts\mvdfrm\UnityEngine.GIModule.dll_476430096AA37E59.mvfrm
Library\Bee\artifacts\mvdfrm\UnityEngine.GridModule.dll_639CB2BE576EC46D.mvfrm
Library\Bee\artifacts\mvdfrm\UnityEngine.HotReloadModule.dll_9EB59DC08C6117B3.mvfrm
Library\Bee\artifacts\mvdfrm\UnityEngine.ImageConversionModule.dll_900FD6E4225B9EDE.mvfrm
Library\Bee\artifacts\mvdfrm\UnityEngine.IMGUIModule.dll_695B12FBE2F8FCC4.mvfrm
Library\Bee\artifacts\mvdfrm\UnityEngine.InputLegacyModule.dll_1EBF2E088405A970.mvfrm
Library\Bee\artifacts\mvdfrm\UnityEngine.InputModule.dll_97713B4592FF8D87.mvfrm
Library\Bee\artifacts\mvdfrm\UnityEngine.JSONSerializeModule.dll_EC6F92832FAC08D5.mvfrm
Library\Bee\artifacts\mvdfrm\UnityEngine.LocalizationModule.dll_C0A31A4D686BDD40.mvfrm
Library\Bee\artifacts\mvdfrm\UnityEngine.ParticleSystemModule.dll_A90CC659F1ACF35C.mvfrm
Library\Bee\artifacts\mvdfrm\UnityEngine.PerformanceReportingModule.dll_F8C13BF231B1B935.mvfrm
Library\Bee\artifacts\mvdfrm\UnityEngine.Physics2DModule.dll_6A12CFAB522AF3C6.mvfrm
Library\Bee\artifacts\mvdfrm\UnityEngine.PhysicsModule.dll_217D0262CDC35E14.mvfrm
Library\Bee\artifacts\mvdfrm\UnityEngine.ProfilerModule.dll_D25568DD5D26F120.mvfrm
Library\Bee\artifacts\mvdfrm\UnityEngine.RuntimeInitializeOnLoadManagerInitializerModule.dll_7AF7CAAB6AB8F08F.mvfrm
Library\Bee\artifacts\mvdfrm\UnityEngine.ScreenCaptureModule.dll_0657400844183537.mvfrm
Library\Bee\artifacts\mvdfrm\UnityEngine.SharedInternalsModule.dll_142115B999899A2E.mvfrm
Library\Bee\artifacts\mvdfrm\UnityEngine.SpriteMaskModule.dll_49F9963F54A801E8.mvfrm
Library\Bee\artifacts\mvdfrm\UnityEngine.SpriteShapeModule.dll_A6DB4044A1B62B89.mvfrm
Library\Bee\artifacts\mvdfrm\UnityEngine.StreamingModule.dll_D201CD0B00B5B36F.mvfrm
Library\Bee\artifacts\mvdfrm\UnityEngine.SubstanceModule.dll_AEACE1544C08B17D.mvfrm
Library\Bee\artifacts\mvdfrm\UnityEngine.SubsystemsModule.dll_B4A6FCA122EFE9FB.mvfrm
Library\Bee\artifacts\mvdfrm\UnityEngine.TerrainModule.dll_3BC37DD1A381A702.mvfrm
Library\Bee\artifacts\mvdfrm\UnityEngine.TerrainPhysicsModule.dll_A9876F2D0AEFEDE9.mvfrm
Library\Bee\artifacts\mvdfrm\UnityEngine.TextCoreFontEngineModule.dll_6B345B7AC2CF8334.mvfrm
Library\Bee\artifacts\mvdfrm\UnityEngine.TextCoreTextEngineModule.dll_B31C91EC52533C52.mvfrm
Library\Bee\artifacts\mvdfrm\UnityEngine.TextRenderingModule.dll_2F96B212FB4FB52C.mvfrm
Library\Bee\artifacts\mvdfrm\UnityEngine.TilemapModule.dll_DABFE552BB3E880B.mvfrm
Library\Bee\artifacts\mvdfrm\UnityEngine.TLSModule.dll_8BFA83C77FEA09E8.mvfrm
Library\Bee\artifacts\mvdfrm\UnityEngine.UIElementsModule.dll_B8E55E09261C25F2.mvfrm
Library\Bee\artifacts\mvdfrm\UnityEngine.UIElementsNativeModule.dll_530736F8BA416109.mvfrm
Library\Bee\artifacts\mvdfrm\UnityEngine.UIModule.dll_AA9B85292B3B9BEB.mvfrm
Library\Bee\artifacts\mvdfrm\UnityEngine.UmbraModule.dll_ABD01FADA9EE1456.mvfrm
Library\Bee\artifacts\mvdfrm\UnityEngine.UNETModule.dll_18D1DEB98C2923EF.mvfrm
Library\Bee\artifacts\mvdfrm\UnityEngine.UnityAnalyticsModule.dll_C8AC37239DD44558.mvfrm
Library\Bee\artifacts\mvdfrm\UnityEngine.UnityConnectModule.dll_F0195EF419F0182C.mvfrm
Library\Bee\artifacts\mvdfrm\UnityEngine.UnityCurlModule.dll_508980EC2141EE1E.mvfrm
Library\Bee\artifacts\mvdfrm\UnityEngine.UnityTestProtocolModule.dll_CBC4B4688B6F118C.mvfrm
Library\Bee\artifacts\mvdfrm\UnityEngine.UnityWebRequestAssetBundleModule.dll_79C8443956DEAA29.mvfrm
Library\Bee\artifacts\mvdfrm\UnityEngine.UnityWebRequestAudioModule.dll_70BD8FD0B81C83CD.mvfrm
Library\Bee\artifacts\mvdfrm\UnityEngine.UnityWebRequestModule.dll_A1AEDE8E2D50395D.mvfrm
Library\Bee\artifacts\mvdfrm\UnityEngine.UnityWebRequestTextureModule.dll_917EE987BAC44542.mvfrm
Library\Bee\artifacts\mvdfrm\UnityEngine.UnityWebRequestWWWModule.dll_7DDED7484212F8BE.mvfrm
Library\Bee\artifacts\mvdfrm\UnityEngine.VehiclesModule.dll_17D229263DF739AE.mvfrm
Library\Bee\artifacts\mvdfrm\UnityEngine.VFXModule.dll_0CD91C3656577355.mvfrm
Library\Bee\artifacts\mvdfrm\UnityEngine.VideoModule.dll_5604F7FFDF598488.mvfrm
Library\Bee\artifacts\mvdfrm\UnityEngine.VRModule.dll_FD6DABAECCF62163.mvfrm
Library\Bee\artifacts\mvdfrm\UnityEngine.WindModule.dll_FC7A71F8D050ACDF.mvfrm
Library\Bee\artifacts\mvdfrm\UnityEngine.XRModule.dll_302C6EB356306EC1.mvfrm